%YAML 1.1
%TAG !u! tag:unity3d.com,2011:
--- !u!1 &1978644234900353244
GameObject:
  m_ObjectHideFlags: 0
  m_CorrespondingSourceObject: {fileID: 0}
  m_PrefabInstance: {fileID: 0}
  m_PrefabAsset: {fileID: 0}
  serializedVersion: 6
  m_Component:
  - component: {fileID: 6750179110140563539}
  - component: {fileID: -234785130157326833}
  m_Layer: 0
  m_Name: RootState
  m_TagString: Untagged
  m_Icon: {fileID: 0}
  m_NavMeshLayer: 0
  m_StaticEditorFlags: 0
  m_IsActive: 1
--- !u!4 &6750179110140563539
Transform:
  m_ObjectHideFlags: 0
  m_CorrespondingSourceObject: {fileID: 0}
  m_PrefabInstance: {fileID: 0}
  m_PrefabAsset: {fileID: 0}
  m_GameObject: {fileID: 1978644234900353244}
  serializedVersion: 2
  m_LocalRotation: {x: 0, y: 0, z: 0, w: 1}
  m_LocalPosition: {x: 0, y: 0, z: 0}
  m_LocalScale: {x: 1, y: 1, z: 1}
  m_ConstrainProportionsScale: 0
  m_Children: []
  m_Father: {fileID: 0}
  m_LocalEulerAnglesHint: {x: 0, y: 0, z: 0}
--- !u!114 &-234785130157326833
MonoBehaviour:
  m_ObjectHideFlags: 0
  m_CorrespondingSourceObject: {fileID: 0}
  m_PrefabInstance: {fileID: 0}
  m_PrefabAsset: {fileID: 0}
  m_GameObject: {fileID: 1978644234900353244}
  m_Enabled: 1
  m_EditorHideFlags: 0
  m_Script: {fileID: 11500000, guid: 4b766e8bdae3edb47a170e1514736c94, type: 3}
  m_Name: 
  m_EditorClassIdentifier: 
  MainMenuStatePrefab: {fileID: -8575355747093158812, guid: 9009522df6db1e94f9114ce659e39256,
    type: 3}
  DebugStatePrefab: {fileID: -5473792132773330873, guid: 723ddadd680bb3f43aaf9f63b941c25a,
    type: 3}
  PlayStatePrefab: {fileID: -3441043709740848471, guid: adb91596e2d73194bbe7d576b8637b06,
    type: 3}
